…
#Example below:

```{r}
table1
#> # A tibble: 6 × 4
#>   country      year  cases population
#>   <chr>       <int>  <int>      <int>
#> 1 Afghanistan  1999    745   19987071
#> 2 Afghanistan  2000   2666   20595360
#> 3 Brazil       1999  37737  172006362
#> 4 Brazil       2000  80488  174504898
#> 5 China        1999 212258 1272915272
#> 6 China        2000 213766 1280428583
table2
#> # A tibble: 12 × 4
#>   country      year type           count
#>   <chr>       <int> <chr>          <int>
#> 1 Afghanistan  1999 cases            745
#> 2 Afghanistan  1999 population  19987071
#> 3 Afghanistan  2000 cases           2666
#> 4 Afghanistan  2000 population  20595360
#> 5 Brazil       1999 cases          37737
#> 6 Brazil       1999 population 172006362
#> # ... with 6 more rows
…
##Pivoting data to make it tidy:

#The second step is to resolve one of the two common problems with untidy data. These are:One variable is spread across multiple columns.One observation is scattered across multiple rows

##To fix these we will pivot our data (i.e. move it around) into tidy form using two functions in tidyr: pivot_longer() to lengthen data and pivot_wider() to widen data. Let’s explore these functions a bit further.

##4.5.1: Lenghtening datasets

##Using  pivot_longer() splits the dataset by column, and reformats it into the tidy format of observations as rows, columns as variables and values as cell entries. The dataset is now longer (more rows, at left) than the ‘wide format’ data on the right. 

##Example:
```{r}
billboard
view(billboard)
#> # A tibble: 317 × 79
#>   artist       track               date.entered   wk1   wk2   wk3   wk4   wk5
#>   <chr>        <chr>               <date>       <dbl> <dbl> <dbl> <dbl> <dbl>
#> 1 2 Pac        Baby Don't Cry (Ke... 2000-02-26      87    82    72    77    87
#> 2 2Ge+her      The Hardest Part O... 2000-09-02      91    87    92    NA    NA
#> 3 3 Doors Down Kryptonite          2000-04-08      81    70    68    67    66
#> 4 3 Doors Down Loser               2000-10-21      76    76    72    69    67
#> 5 504 Boyz     Wobble Wobble       2000-04-15      57    34    25    17    17
#> 6 98^0         Give Me Just One N... 2000-08-19      51    39    34    26    26
#> # ℹ 311 more rows
#> # ℹ 71 more variables: wk6 <dbl>, wk7 <dbl>, wk8 <dbl>, wk9 <dbl>, ...
…
#Note that in the code "week" and "rank" are quoted because they are new variables that we are creating, they don’t exist yet in the data when we run the pivot_longer() call.

##Notice the NA values in the output above? It looks like “Baby Don’t Cry” by 2 Pac was only in the top 100 for 7 out of 76 weeks. Therefore, when we lengthened the data, the weeks where it wasn't on the charts became ‘NA.’ These NA’s were forced to exist because of the structure of the dataset not because they are actually unknown. Therefore, we can simply ask pivot_longer to remove them by adding the argument values_drop_na = TRUE as shown below:

```{r}
billboard |> 
  pivot_longer(
    cols = starts_with("wk"), 
    names_to = "week", 
    values_to = "rank",
    values_drop_na = TRUE
  )
#> # A tibble: 5,307 × 5
#>   artist track                   date.entered week   rank
#>   <chr>  <chr>                   <date>       <chr> <dbl>
#> 1 2 Pac  Baby Don't Cry (Keep... 2000-02-26   wk1      87
#> 2 2 Pac  Baby Don't Cry (Keep... 2000-02-26   wk2      82
#> 3 2 Pac  Baby Don't Cry (Keep... 2000-02-26   wk3      72
#> 4 2 Pac  Baby Don't Cry (Keep... 2000-02-26   wk4      77
#> 5 2 Pac  Baby Don't Cry (Keep... 2000-02-26   wk5      87
#> 6 2 Pac  Baby Don't Cry (Keep... 2000-02-26   wk6      94
#> # ℹ 5,301 more rows
```
…
#The left table represents what we originally typed when we created our dataset ‘df.’ The right table is what happened to the id when we used pivot_longer(). See how the data pivoted and repeated an id for each measurement? Additionally, the original column names in df (bp1 and bp2) now become values in a new variable, whose name is defined by the names_to argument and these values need to be repeated once for each row in the original dataset: And finally, the cell values also become a new variable with a name we defined by the values_to argument. These are unwound row by row:

##4.5.3: Widening datasets

###less common cases, we may need to widen a dataset rather than lengthen it. Widening is essentially the opposite of lengthening and we do so by using the function pivot_wider(). pivot_wider() allows us to handle an observation if it is scattered across multiple rows. Let’s visualize this in the image below:

```{r}
cms_patient_experience
#> # A tibble: 500 × 5
#>   org_pac_id org_nm                     measure_cd   measure_title   prf_rate
#>   <chr>      <chr>                      <chr>        <chr>              <dbl>
#> 1 0446157747 USC CARE MEDICAL GROUP INC CAHPS_GRP_1  CAHPS for MIPS...       63
#> 2 0446157747 USC CARE MEDICAL GROUP INC CAHPS_GRP_2  CAHPS for MIPS...       87
#> 3 0446157747 USC CARE MEDICAL GROUP INC CAHPS_GRP_3  CAHPS for MIPS...       86
#> 4 0446157747 USC CARE MEDICAL GROUP INC CAHPS_GRP_5  CAHPS for MIPS...       57
#> 5 0446157747 USC CARE MEDICAL GROUP INC CAHPS_GRP_8  CAHPS for MIPS...       85
#> 6 0446157747 USC CARE MEDICAL GROUP INC CAHPS_GRP_12 CAHPS for MIPS...       24
#> # ℹ 494 more rows
…
weather %>% 
  count(year, month, day, hour, origin) %>% 
  filter(n > 1)

```


#Sometimes a table doesn’t have an explicit primary key: each row is an observation, but no combination of variables reliably identifies it. For example, what’s the primary key in the flights table? You might think it would be the date plus the flight or tail number, but neither of those are unique:

```{r}
flights %>% 
  count(year, month, day, flight) %>% 
  filter(n > 1)
#> # A tibble: 29,768 × 5
#>    year month   day flight     n
#>   <int> <int> <int>  <int> <int>
#> 1  2013     1     1      1     2
#> 2  2013     1     1      3     2
#> 3  2013     1     1      4     2
#> 4  2013     1     1     11     3
#> 5  2013     1     1     15     2
#> 6  2013     1     1     21     2
#> # ... with 29,762 more rows

flights %>% 
  count(year, month, day, tailnum) %>% 
  filter(n > 1)
#> # A tibble: 64,928 × 5
#>    year month   day tailnum     n
#>   <int> <int> <int> <chr>   <int>
#> 1  2013     1     1 N0EGMQ      2
#> 2  2013     1     1 N11189      2
#> 3  2013     1     1 N11536      2
#> 4  2013     1     1 N11544      3
#> 5  2013     1     1 N11551      2
#> 6  2013     1     1 N12540      2
#> # ... with 64,922 more rows
```
…
